{
	"DISCORD_PERMISSION_MANAGE_MESSAGES": "Mesajları Yönet",
	"MESSAGEABLE_EMPTY_MESSAGE": "Boş bir mesaj göndermeyi denedim.",
	"MESSAGEABLE_SEND_FAIL": "Hayda! Çıkış, 2 bin karakterden daha fazla geldi. Buyrun, mesaj içeriği ile birlikte bir txt:",
	"MESSAGEABLE_UPDATE_FAIL": "Hayda! Çıkış, iki bin karakterden daha fazla geldi.",
	"PAGINATION_ALTERNATIVE_CLOSE": "Sayfaları kapatmak için `x` yazın.",
	"PAGINATION_ALTERNATIVE_NAVIGATION": "`<` ya da `>` yazarak sayfa değiştirin. `p<Sayı>` yazarak bir sayfaya atlayın (örn. `p10`).",
	"PAGINATION_NO_ITEMS": "Burada benden başka kimse yok gibi...",
	"PAGINATION_NO_MANAGE_MESSAGES": "Görünüşe göre {permission} adlı Discord yetkin yok. Bu yetki verildiğinde sayfa değiştirme mesajlarını otomatik olarak sileceğim.",
	"PAGINATION_PAGE": "Sayfa {NumPage, number}/{numMax, number}"
}